Permutation and the Bootstrap test
…
library(tidyr)

Then to load the data in a data frame named trump_tweets_df, we use:

load(url("http://varianceexplained.org/files/trump_tweets_df.rda"))

We then create a new data frame named tweets based on the raw data:

tweets = trump_tweets_df %>%
  select(id, statusSource, text, created) %>%
  extract(statusSource, "source", "Twitter for (.*?)<") %>%
  filter(source %in% c("iPhone", "Android"))
tweets

## # A tibble: 1,390 x 4
##    id          source  text                                  created            
##    <chr>       <chr>   <chr>                                 <dttm>             
##  1 7626698825 Android "My economic policy speech will be c 2016-08-08 15:20:44
##  2 7626415954 iPhone  "Join me in Fayetteville, North Caro 2016-08-08 13:28:20
##  3 7624396589 iPhone  "#ICYMI: \"Will Media Apologize to T 2016-08-08 00:05:54
##  4 7624253718 Android "Michael Morell, the lightweight for 2016-08-07 23:09:08
##  5 7624008698 Android "The media is going crazy. They tota 2016-08-07 21:31:46
##  6 7622845333 Android "I see where Mayor Stephanie Rawling 2016-08-07 13:49:29
##  7 7621109187 iPhone  "Thank you Windham, New Hampshire! # 2016-08-07 02:19:37
##  8 7621069044 iPhone  ".@Larry_Kudlow - 'Donald Trump Is t 2016-08-07 02:03:39
##  9 7621044117 Android "I am not just running against Crook 2016-08-07 01:53:45
## 10 7620164261 iPhone  "#CrookedHillary is not fit to be ou 2016-08-06 20:04:08
## #  with 1,380 more rows
…
