Lab 24: In-Class
…
## Warning: `tbl_df()` is deprecated as of dplyr 1.0.0.
## Please use `tibble::as_tibble()` instead.
## This warning is displayed once every 8 hours.
## Call `lifecycle::last_warnings()` to see where this warning was generated.

houses <- houses %>%
    mutate(city = factor(in_sf, levels = c(1, 0), labels = c("SF", "NYC")))
houses 

## # A tibble: 492 x 9
##    in_sf  beds  bath   price year_built  sqft price_per_sqft elevation city 
##    <int> <dbl> <dbl>   <int>      <int> <int>          <int>     <int> <fct>
##  1     0     2     1  999000       1960  1000            999        10 NYC  
##  2     0     2     2 2750000       2006  1418           1939         0 NYC  
##  3     0     2     2 1350000       1900  2150            628         9 NYC  
##  4     0     1     1  629000       1903   500           1258         9 NYC  
##  5     0     0     1  439000       1930   500            878        10 NYC  
##  6     0     0     1  439000       1930   500            878        10 NYC  
##  7     0     1     1  475000       1920   500            950        10 NYC  
##  8     0     1     1  975000       1930   900           1083        10 NYC  
##  9     0     1     1  975000       1930   900           1083        12 NYC  
## 10     0     2     1 1895000       1921  1000           1895        12 NYC  
## #  with 482 more rows
…
Exercise 3: Logistic Regression

In this you will use a dataset Default, on customer default records for a credit card company, which is included in ISL book. To obtain the data you will need to install a package ISLR.

# install.packages("ISLR")
library(ISLR)
(Default <- tbl_df(Default))

## # A tibble: 10,000 x 4
##    default student balance income
##    <fct>   <fct>     <dbl>  <dbl>
##  1 No      No         730. 44362.
##  2 No      Yes        817. 12106.
##  3 No      No        1074. 31767.
##  4 No      No         529. 35704.
##  5 No      No         786. 38463.
##  6 No      Yes        920.  7492.
##  7 No      No         826. 24905.
##  8 No      Yes        809. 17600.
##  9 No      No        1161. 37469.
## 10 No      No           0  29275.
## #  with 9,990 more rows
…
Exercise 4: Hypothesis testing

Similarly to dataset mtcars, the dataset mpg from ggplot package includes data on automobiles. However, mpg includes data for newer cars from year 1999 and 2008. The variables measured for each car is slighly different. Here we are interested in the variable, hwy, the highway miles per gallon.

# We first format the column trans to contain only info on transmission auto/manual
mpg

## # A tibble: 234 x 11
##    manufacturer model    displ  year   cyl trans   drv     cty   hwy fl    class
##    <chr>        <chr>    <dbl> <int> <int> <chr>   <chr> <int> <int> <chr> <chr>
##  1 audi         a4         1.8  1999     4 auto(l f        18    29 p     comp
##  2 audi         a4         1.8  1999     4 manual f        21    29 p     comp
##  3 audi         a4         2    2008     4 manual f        20    31 p     comp
##  4 audi         a4         2    2008     4 auto(a f        21    30 p     comp
##  5 audi         a4         2.8  1999     6 auto(l f        16    26 p     comp
##  6 audi         a4         2.8  1999     6 manual f        18    26 p     comp
##  7 audi         a4         3.1  2008     6 auto(a f        18    27 p     comp
##  8 audi         a4 quat   1.8  1999     4 manual 4        18    26 p     comp
##  9 audi         a4 quat   1.8  1999     4 auto(l 4        16    25 p     comp
## 10 audi         a4 quat   2    2008     4 manual 4        20    28 p     comp
## #  with 224 more rows

mpg <- mpg %>% 
  mutate(
    transmission = factor(
        gsub("\\((.*)", "", trans), levels = c("auto", "manual"))
  )
mpg

## # A tibble: 234 x 12
##    manufacturer model displ  year   cyl trans drv     cty   hwy fl    class
##    <chr>        <chr> <dbl> <int> <int> <chr> <chr> <int> <int> <chr> <chr>
##  1 audi         a4      1.8  1999     4 auto f        18    29 p     comp
##  2 audi         a4      1.8  1999     4 manu f        21    29 p     comp
##  3 audi         a4      2    2008     4 manu f        20    31 p     comp
##  4 audi         a4      2    2008     4 auto f        21    30 p     comp
##  5 audi         a4      2.8  1999     6 auto f        16    26 p     comp
##  6 audi         a4      2.8  1999     6 manu f        18    26 p     comp
##  7 audi         a4      3.1  2008     6 auto f        18    27 p     comp
##  8 audi         a4 q   1.8  1999     4 manu 4        18    26 p     comp
##  9 audi         a4 q   1.8  1999     4 auto 4        16    25 p     comp
## 10 audi         a4 q   2    2008     4 manu 4        20    28 p     comp
## #  with 224 more rows, and 1 more variable: transmission <fct>
…
