MSMB, Lecture 2: Statistical Modeling
…
Question 1: should we think of fractionsmallerorequal as a p-value?

Question 2: if we had come up with the hypothesis that \(p_{\mbox{C}}=p_{\mbox{G}}\) and \(p_{\mbox{A}}=p_{\mbox{T}}\) from the same data that we then use to compute fractionsmallerorequal, would there be a problem?

Codon usage patterns

A sequence of three nucleotides (a codon) in a coding region of a gene can be transcribed into one of 20 possible amino acids. There are \(4^3 = 64\) possible codon sequences, but only 20 amino acids.

The multiplicity (the number of codons that code for the same amino acid) varies from 2 to 6. The different codon-spellings of each amino acid do not occur with equal probabilities. Let’s look at the data for the standard laboratory strain of tuberculosis (H37Rv):

library("readr")
Myc = read_table(input_dir("data/M_tuberculosis.txt"), col_names = TRUE, comment = "#")
Myc

## # A tibble: 79 x 4
##    AmAcid Codon Number PerThous
##    <chr>  <chr>  <dbl>    <dbl>
##  1 Gly    GGG    25874     19.2
##  2 Gly    GGA    13306      9.9
##  3 Gly    GGT    25320     18.8
##  4 Gly    GGC    68310     50.8
##  5 ""     <NA>      NA     NA  
##  6 Glu    GAG    41103     30.6
##  7 Glu    GAA    21767     16.2
##  8 Asp    GAT    21165     15.8
##  9 Asp    GAC    56687     42.2
## 10 ""     <NA>      NA     NA  
## # … with 69 more rows
…
